…
{% highlight text %}
#> `mutate_each()` is deprecated.
#> Use `mutate_all()`, `mutate_at()` or `mutate_if()` instead.
#> To map `funs` over a selection of variables, use `mutate_at()`
{% endhighlight %}



{% highlight text %}
#> # A tibble: 150 x 9
#> # Groups: Species [3]
#>    Sepal.Length Sepal… Petal… Petal… Speci… Sepa… Sepa… Sepal… Sepal…
#>           <dbl>  <dbl>  <dbl>  <dbl> <fctr> <int> <int>  <dbl>  <dbl>
#>  1         5.10   3.50   1.40  0.200 setosa    29    29 0.720  0.680 
#>  2         4.90   3.00   1.40  0.200 setosa    17     3 0.400  0.160 
#>  3         4.70   3.20   1.30  0.200 setosa    10    13 0.220  0.340 
#>  4         4.60   3.10   1.50  0.200 setosa     6     9 0.180  0.240 
#>  5         5.00   3.60   1.40  0.200 setosa    21    35 0.560  0.740 
#>  6         5.40   3.90   1.70  0.400 setosa    41    45 0.900  0.920 
#>  7         4.60   3.40   1.40  0.300 setosa     6    20 0.180  0.560 
#>  8         5.00   3.40   1.50  0.200 setosa    21    20 0.560  0.560 
#>  9         4.40   2.90   1.40  0.200 setosa     2     2 0.0800 0.0400
#> 10         4.90   3.10   1.50  0.100 setosa    17     9 0.400  0.240 
#> # ... with 140 more rows
…
